Line coverage data is inconsistent,2
Surefire classpath is incorrect when depending on a jar and a test-jar from the same maven module,2
Setting special instrumentation output dir to a source dir deletes all source!,1
Add method/statement level instrumentation setting in project properties page ,1
Make Test Run Explorer perform better and stop locking the UI thread,4
Message in Balloon after clean snapshot is bogus,2
"No instrumentation Done, Always get two Tests run.",1
Clover should prompt to rebuild a project if its flush or initstring settings change,1
Test Columns are empty (or -1) in project.js when generated via a JSON report  ,2
Clover-for-Grails generates an exception when using the -clover.view option on the Grails command line.,1
Implement Test Optimization for Grails: -clover.optimize,2
clover + ant + GWT does not compile and test with clover.,3
Assertion failing (call not made from EDT),2
Occasionally clover is getting broken on the Hudson ,3
<testsources> does not work with Ant groovyc task,1
"Clover's embedding of GSON brings in ""assembly-descriptor.xml"" into clover.jar which causes problems for ejbdoclet, others",1
Cannot select contexts in IDEA 10.0.2,1
Ternary clauses never executed still get coverage,2
clover2:check fails with negative coverage if no class to instrument,1
Coverage data not showing up in Intellij,1
Test Optimization says 0 tests should run but all tests are run anyway,5
"Can't Use ""Google App Engine"" Run Configuration in IDEA 10.5 when Clover Plug-in is Installed",2
"Log the actual percentage coverage instead of ""Coverage check PASSED"".",1
IDEA 11 error turning OFF Clover coverage,2
Clover-for-Groovy failed to instrument Groovy sources having methods overridden by metaClass ,13
Missing icons on TreeView and Cloud Report tabs,2
Write up on CAC how to get Clover working with Maven and integration tests,1
Prepare tutorial how to configure distributed coverage for web applications,1
Consistent statistics reporting in IDE and HTML reports for subpackages,3
Finish About+Clover-for-Grails page,1
Guide users through Eclipse setup,2
"Drop support for Eclipse 3.4, 3.5 and RAD 7.5",1
license information inconsistent in IDEA,1
"bad alignment of ""About"" box in IDEA",1
Eclipse does not exclude filtered-out methods from statistics,1
Unit test failure during Clover2 custom lifecycle do not fail builds,2
Prepare tutorial how to instrument RCP application under Eclipse,1
Reading clover database across platforms does not resolve path correctly for FileInfo,1
Prepare manual how to set-up cross-platform testing,1
Unicode CR/LF characters in javadoc causes Eclipse/IntelliJ editors get out of sync,2
Fix Clover-for-IDEA compatibility with IntelliJ IDEA 12,4
Coverage ruler does not read settings from Preferences,1
Coverage ruler does not refresh correctly when all source code annotations are disabled,2
Remove grover*.jar after build,2
Create utility for upgrading third party libraries bundled in Clover,1
Make Clover-for-Android prototype publicly available,5
Refresh Clover-for-Scala prototype,13
Expose a Service Provider Interface for Clover for handling new languages,8
Remove obsolete pages from Clover 3.1 space,1
Support *.groovy files in src/main/java folder for groovy-eclipse-plugin,3
Implement integration with Maven Tycho Plugin,4
Make possible to see instrumented sources in Clover-for-Eclipse,1
"Clover does not instrument groovy source files, (groovy-eclipse compiler) when located in src/main/groovy",5
Clover fails to find coverage snapshot files when IBM JRE is used,1
Inconsistent popup menu in different IDEA versions,2
Simple installer for Clover-for-IDEA,2
Refresh clover.atlassian.com,1
Run with Clover as on a project with no Clover,1
Test Run Explorer does not show test contribution with optimized run,1
Create small legend for Top Risks and Quick Wins in Cloud report,1
Change default sort order in coverage report for packages/classes/methods,2
Add drop-down with two options for coverage,2
Generate cumulative statement / complexity metric for need of methodContext filtering,8
Fix AbstractAntLogger,1
Clover does not work with Groovy 2.x,2
Grails Clover Plugin does not intercept 'testc' compiler,1
CloverOptimizerMojo does not support full include/exclude syntax,1
Add maxComplexity / maxStatements for Clover-for-Maven,2
Make HTML report more consistent about number of classes,2
The clover-log should use default test detection if testSources are not defined,3
Errors in ErrorLog when toggling between projects with Dashboard view active,1
Fix ruler coloring when include coverage from passed only is enabled,1
Highlight whole method body if method is not covered,5
Multiple test cases in Test Run Explorer in IDEA,2
Multiple test cases in Test Runs view in Eclipse,3
Cloud Report in IDEA shows interfaces,2
Check Now button does not work if project is not opened in IDEA,1
Test optimization is broken in IDEA11 and above,2
IDEA12 JavaSourceTransformingCompiler functionality has been removed,5
Don't spam the console with println anytime clover grails plugin is installed,1
Aggregate coverage by current author and commit regex,13
The <testsources> tag from <clover-setup> is not passed to groovyc,2
Create ClassInfo objects for anonymous inline classes,5
as a developer I don't need to run Clover on JDK1.4 anymore,1
Groovy 2.x @CompileStatic annotation causes static methods to be ignored by Clover,8
Add testSources parameter for clover2:clover mojo,1
Perform migration of CLMVN and CLMVNONE from studio.plugins.atlassian.com,3
Compile maven-clover2-plugin using JDK1.5,1
Update Supported-Platforms page,1
Remove retrotranslator,1
CLMVNONE new property: maven.clover.instrumentationLevel,1
"CLMVNONE Use includes, instead of nested include to allow more than one pattern when merging",1
CLMVNONE Integrate Distributed coverage,3
Show warning if new update is out of scope of the current license,1
Auto update version check reports new version when version strings are identical,3
Add <profiles> element for <clover-setup> and <clover-instr>,2
Document <profiles> element on CAC,1
Add profiles for InstrumentationConfig,1
Embed clover profile array in instrumented classes,5
Use GrowableBitSet for PerTestRecorder.One,3
Create GrowableBitSet class,2
Dynamically select coverage recorder based on clover.profile,2
Add 'clover.enabled' system property,1
as a developer I'd like not to deploy clover.jar to app server,40
Split clover-core into clover-runtime + clover-core,5
Create <clover-embed-runtime> task,3
Create clover2:embed-runtime-jar goal,3
Maven extracts clover-runtime into target/classes or target/classes-clover,3
Maven: intercept maven-jar-plugin and add clover-runtime,5
Maven: intercept maven-ear-plugin and add clover-runtime,3
Maven: intercept maven-rar-plugin and add clover-runtime,3
Maven: intercept maven-war-plugin and add clover-runtime,3
Maven: intercept maven-cargo-plugin and add clover-runtime dependency,5
Eclipse: extract clover-runtime classes into build directory,5
IDEA: extract clover-runtime classes into build directories,5
Grails: extract clover-runtime into build directory,8
Prepare integration tests for GrowableCoverageRecorder,5
Prepare integration tests for SharedCoverageRecorder,5
Some of per-test recording strategies do not work for multi-threaded applications,5
Add Ant dependendency to com.cenqua.clover:clover maven artifact,4
Prepare code example for Grails,2
Add clover.coverageRecorder field for Clover-for-Grails plugin,3
Upgrade third party libraries used by Clover,8
Reduce friction in tutorial,5
Add url for 'utils.js' home page,2
"PDF report with ""include failed test coverage"" option fails",2
IDEA Darcula theme ignores <table border=0>,3
Race condition in IDEA during full rebuild and test execution,8
Performance problem with SHARED coverage recorder in Grails app,5
as a developer I'd like to track build events in IDEA12 external build,5
Check how clover.db can be accessed from build server and IDE processes at once,13
Check how parallel instrumentation can be handled,8
Implement clover.db sharing between build server and IDE processes,13
Implement parallel compilation handling,13
Write sequential integration tests for build server,13
Test IDEA IDE - build server interaction,5
Reduce coverage requirements for groovy safe operator,8
Document how to configure Clover + Bamboo with 'mvn deploy' goal on CAC,1
Error when trying to Check for an Update,5
Improve message for NoSuchRegistryException,1
Write parallel integration tests for build server,13
as a developer I'd like to build projects using 'classic' build in IDEA12,13
Code instrumentation using jps-builders,20
Implement communication between IDEA IDE and JPS builder,13
Support custom metrics in PDF report,5
PDF report with class-level and method-level summary,8
Check how parallel instrumentation sessions can be handled,13
Implement Clover data serialization from IDE to JPS,20
Prepare documentation on CAC and AAC,3
HTML report shows only one test result per file if external XML JUnit files are used,5
Contributed and unique coverage are equal,3
Find workaround or fix for IDEA-108852,8
Add more values for a 'threads' drop-down in report dialog,2
The 'include line info' toggle works in the opposite way,2
Exclusion icon decoration is not visible in IDEA,5
Class loader fails on clover.jar package-info,3
as a Clover developer I'd like to use the latest version of ANTLR,13
as a developer I'd like to instrument Java8 new language features,20
as a developer I'd like to generate reports with Java8 sources,13
as a developer I'd like to have information about lambdas in the Clover database,20
as a developer I want be able to select 1.8 language level,3
Warn if directory selected on Test Classes tab is disabled on Source Files tab,3
"The <testmethod name="".*> does not match constructors",20
Implicit return in Groovy switch statement is instrumented incorrectly,5
Added LICENSES.html file to Clover artfiacts,3
review navigation links on a page summary,2
Add ADG navigation bar in the HTML report,1
Create code samples with java8 syntax,13
Prepare unit tests compiling and instrumenting code samples,13
Set up a Bamboo build for JDK1.8,3
Add new grammar rules for java8 syntax,3
as an administrator I need to monitor Clover usage on machines,13
Enhance Clover database to keep full instrumentation history,40
Fix test optimization and check all class versions,13
Analyse how tests are converted by Spock ,13
Implement test name to method name mapping in Clover,13
Add Spock test name patterns in default test detector ,8
Ensure that reports show the test name and not the method name,8
as a developer I don't need to run Clover on JDK1.5 anymore,5
Extend API for loading and manipulate coverage files ,8
Change signature of getXyz() methods in HasXyz interfaces,5
Create interfaces and factory methods for loading Clover database,3
Create interfaces and some template class for handling instrumentation sessions,5
Create API for handling coverage recording files,8
Create API for handling optimization snapshot,8
Add showInnerFunctions and showLambdaFunctions to clover2:setup,1
Add lambda toggle to report wizards in Eclipse and IDEA,2
Fully qualified java.lang is not used for system properties in Clover.getRecorder ,2
Perform Scala spike,5
Clover integration with Bamboo - enhancements,40
as a developer I'd like to have Spock @Unroll annotation being recognized by Clover,20
Instrumentation of a branch condition with a generic type leads to javac compilation error,13
clover intrumented testcode with PersitenceConstructor and parameters fails ,1
as a code reviewer I'd like to see ADG fonts and colours in the HTML report,40
review ADG page layout in the HTML report,1
IDEA13 compatiblity issues,13
"""No such property: testTargetPatterns"" exception with Grails 2.3",2
Java+Groovy compilation fails with Clover enabled in IntelliJ 12.1.x,13
Java 1.8 Exceptions not being propagated correctly,3
Java 1.8 compilation fails when lambda is passed to a generic argument,3
Clover fails to instrument generic type with a constructor reference,8
Cloverage view layout is crappy with the Coverage Summary panel,2
Source highlighting label is cropped in the settings dialog,2
URISyntaxException from Clover IDEA plugin under IDEA13 on Mac OS X,2
As a developer I'd like to see JUnit Parameterized tests in the report,5
Split velocity templates to 2 sets: adg and classic,2
"Add report style=adg/classic options for Ant, Maven, Grails",2
Add radio button style=adg/classic in eclipse and idea IDEs,1
Use ADG-compliant colour set for widgets,1
as a developer I expect that Clover will automatically configure IntelliJ IDEA compiler settings,1
The clover2:clover goal does not pass the sourcepath property to underlying <clover-report> task,2
change project/package statistics to the boxed component,2
change package and class list tables into TablesSortable,2
change contributing tests table to TablesSortable etc,5
change small class histogram into container,1
change dashboard boxes look,1
change page footer look,1
change cloud tabs,1
change classes/tests/results bottom left frame,2
chage test result labels to lozenges,1
JDK8 sources fail to compile when instrumented by Clover,3
Integration tests are not being instrumented in Grails 2.3,3
Transitive dependency resolution fails in Grails 2.3 during installation of the Clover plugin,1
Create an API for plugging custom I/O handler,8
Clover plugin doesn't load on IDEA 13 Startup,2
Use more unique property names in clover.xml,2
Clover Grails Plugin fails when tests are launched from IDEA,2
Tree map report has an empty line in context menu,2
Add possibility to configure <profiles> in Eclipse and IDEA IDEs,5
Test spock under gradle,3
Test spock with XML importing,2
Fix uncheched warnings for code instrumented by Clover,2
///Clover:OFF does not work with lambdas,2
clover-for-grails plugin is not working with grails.project.fork,2
native2ascii error converting i18n bundles for plugin,2
ClassNotFoundException when running tests in IDEA 13.1 RC with Clover enabled,2
Several tests fail with Cannot cast object ... to class 'com_cenqua_clover.CoverageRecorder',3
Rename com.cenqua to com.atlassian,3
Maven plugin sholud handle target/generated-test-sources,1
Maven clover2:setup ignores generated sources,1
Maven clover2:setup triggers duplicate class exception,3
Double instrumentation error when running 'mvn site' on JDK8,1
Invalid instrumentation code for test methods inside anonymous inline classes,2
change historical report,1
Clover safeEval method is imcompatible with Groovy's @CompileStatic annotation,3
Grails' controller methods are not shown as entered,3
reduce html report size,3
improve report accessiblity,3
improve navigation between report entities,3
implement global search in the html report - backend,8
tree view is not compacted properly when only 1 package is present,1
provide explanation when number of files is greater than number of classes for a package,1
replace a vertical navigation component by a sidebar,3
Upgrade HTML report to ADG 2.0 / AUI 5.7,2
as a developer I'd like to have nanosecond precision for test duration,3
"Remove ""See more"" links from the report dashboard",1
"""Show contributing test"" change to ...",1
"The ""Show methods"" link does not open the modal dialog",1
tool tips in dashboard widgets shall not be displayed on the right,1
use ADG fonts and colours in Cloud View in IDEA,1
AntIntegrator adds unnecessary double quotes for -Dparam=value JVM options,1
implement global search in the html report - frontend,5
View latest Clover information (BAM-14428),5
Clover tab with an HTML report generated by Clover 4 shall have a vertical scroll bar (BAM-14777),1
Configure Fisheye/Crucible build to use Clover 4,1
Move CloverCompilerAdapter out from org.apache.tools.ant.taskdefs package,1
Application Packages list is empty in Classic report,1
Instrumenting assignment of method reference to field results in reference to undefined symbol.,2
BAM-13404 BAM-15085 Use BuildConfig to install Clover,8
BAM-13208 Automatic integration in multi-module builds,8
BAM-7272 BAM-10516 BAM-11151 Working subdirectory,8
BAM-14734 BAM-14907 Clover charts,5
Release Clover 4.0.2,2
Resolve path to clover.jar when packed as OSGI bundle,1
The Grails' @Transactional annotation conflicts with Clover's AST transformations,3
Upgrade FastUtil library to version 6.5.2 or later,3
Upgrade Atlassian Extras to 3.2.x,3
Replace iText library,5
Improve HTML ADG side bar view and a package tree performance,1
Create Bitbucket Connect Clover Plugin,40
S3 Artifact handler corrupts Clover tab in Bamboo,8
Distributed Coverage does not work due to java.rmi.UnmarshalException,1
Test optimization in IDEA 14 shows wrong number of classes,2
An orphaned lozenge when there are no search results ,1
A wrong caption in a search box in an HTML ADG report,1
A historical report contains link to an XML report,1
Upgrade third party libraries used by Clover - 2nd phase,8
BAM-699 BAM-2883 BAM-13786 Chart points with failed builds or no daily data,5
BAM-9048 More configuration options for automatic Clover integration,5
Test Clover-for-IDEA compatibility with IDEA 14,2
Add additional logging for <clover-setup>/<files> element,1
Insert Clover goals between original ones,3
Add warnings in UI about install/deploy phases,3
Prepare Bamboo documentation about the change,2
Integrate Clover with JUnitParams,5
Clover does not work with Grails 2.4.4,3
Use heuristics to solve JDK8 Stream compilation errors,13
Set instrumentLambda=none as a default value for instrumentation,1
"CloverOptimizedTestNGSelector does not add ""clover-optimized"" group to TestNG @Before and @After annotations",1
Replace clover.licenseLocation by maven.clover.licenseLocation,1
Java8: method reference to a non-static method fails to compile,3
Java8: don't instrument lambda functions when source < 1.8,1
New colour scheme for a tag cloud and a coverage treemap in the HTML report,2
Support Groovy 2.4.0 in Clover,2
Clover doesn't support Spock 1.0 and 1.0-SNAPSHOT,2
Clover fails to generate HTML report for more than one project in Eclipse,1
Unable to open generated reports in Eclipse 4.4,1
Error when closing Cloud Editor in Eclipse,3
Automatic Clover integration does not work for <groovyc> task,5
Protect against deployment of instrumented code,3
Set up developmment environment for Stash,2
as a plugin developer I'd like to have annotations for a package in a Clover database,5
Compiling Groovy code with Clover throws NPE,1
Publish Clover-for-Scala prototype,5
as a user I want to use Clover with maven-scala-plugin,13
as a user I want to use Clover with scalac ,5
as a user I want to use Clover with SBT,20
as a user I want to see nested functions in reports,5
as a user I want to see for Scala exact code coverage highlighting in an HTML report,8
as a user I want to use Clover-for-Scala in IntelliJ IDEA,40
as a user I want to use Clover-for-Scala in Eclipse,40
as a user I want to run test optimization for Scala tests,40
as a user I want to see smart names for classes and functions in reports,20
"Clover installs instrumented-jars in local Maven repo, in place of non-instrument ones",1
Ensure that Clover JAR is readable by Ant 1.9.0-1.9.1,3
"Grails Clover Plugin compatibility with Grails 2.4.5, 2.5.0",5
MavenIntegrator shall not add arguments if they are already present in original command,1
Repository pollution protection reports a custom classifier under Maven 2.2.x,3
Grails Clover Plugin compatibility with Grails 3.x,5
OutOfMemoryError while flushing coverage data,2
Drop support for IDEA versions older than 11.0.0,2
Make Clover compatible with IntelliJ 15,8
Support JDK9 by Clover,20
Add support for Eclipse Mars 4.5 version,1
Eclipse Mars 4.5 does not load platform:/ resources properly,2
AspectJ spike,3
Rename maven-clover2-plugin artifactId to clover-maven-plugin,3
Instrumentation error on certain projects since 4.0.5 build of Clover. ,2
Groovy code with Generics throw NPEs,3
Add migration message in maven-clover2-plugin POM,2
Extend interfaces to manipulate test optimization,2
Extend database format to handle statements and methods in a file,3
Rename ClassInfo to TypeInfo,1
Make session.enterClass() more language-independent,3
Add possibility to add custom properties for code elements,2
Rename StatementInfo to ExpressionInfo,1
Drop classic HTML report,2
Drop Grails 1.3,2
Drop Eclipse 3.6 and 3.7,1
Remove --style from Command line processors,1
Support for IDEA 14.1.5,1
Walk AST and store file and type info in database,8
Walk AST and store method info in a database,8
Walk AST and store statement info in a database,8
Add support for Eclipse Mars.1,1
StringIndexOutOfBoundsException in CloverStartup.evaluateDaysLeft,1
Fix colors of test passed / failed / error icons in Eclipse,1
Test optimization in Eclipse Mars 4.5.1 keeps running one test,1
Add IDEA 14.0.4 to a test matrix,1
Add more debug logging for clover2:aggregate,1
Update Clover Tutorial,1
Rename maven-clover2-plugin to clover-maven-plugin (post-release tasks),2
Instrumentation failure of an annotation inside the catch clause,1
Unicode 0x200B (zero-width whitespace) causes instrumentation failure,2
Prepare feature analysis of JCov tool,2
IntelliJ Plugin should ask for rebuilding project after changing exclusions,1
IntelliJ Plugin should not use UI thread to generate Cloud report,2
Add IntelliJ 15.0.2 to test matrix,1
Gradle Spec,1
Drop support for IntelliJ IDEA 11.x,1
IntelliJ IDEA plugin with version 4.1.1 shows wrong supported version,1
Update Bamboo Clover Plugin (automatic integration shall use new clover-maven-plugin),1
Create simple Gradle repository and run Bamboo plan to test it,1
CloverCompilerAdapter should look for Javac.compileList also in super classes,1
Provide high level instrumentation task which will instrument sources to given directory,4
Provide high level task which will execute tests in simple module java project,4
Provide simple reporting task which generate Clover report,2
Make Clover instrumentation work in multi java project builds,3
Clover shall be able to instrument Test sources,2
TestWithClover task must be aware of instrumented test sources and modify test classpath accordingly,2
Support Eclipse 4.6 Neon,3
Clover does not instrument all nodes in Groovy AST,5
Support InteliiJ IDEA 2016.2,1
Instrument Groovy traits and show code coverage for them,8
